Time & Space Prediction: The case of Philly Bike Share
…
## Warning in predict.lm(fit, newdata = dat): prediction from a rank-deficient fit
## may be misleading

## Warning in predict.lm(fit, newdata = dat): prediction from a rank-deficient fit
## may be misleading

## Warning in predict.lm(fit, newdata = dat): prediction from a rank-deficient fit
## may be misleading

## Warning in predict.lm(fit, newdata = dat): prediction from a rank-deficient fit
## may be misleading
week_predictions
## # A tibble: 35 x 8
##     week          data Regression Prediction Observed Absolute_Error   MAE sd_AE
##    <dbl> <list<df[,30> <chr>      <list>     <list>   <list>         <dbl> <dbl>
##  1    33 [22,176 x 30] Space_FE_1 <dbl [22,~ <dbl [2~ <dbl [22,176]> 0.959  1.13
##  2    34 [22,176 x 30] Space_FE_1 <dbl [22,~ <dbl [2~ <dbl [22,176]> 0.985  1.27
##  3    35 [22,176 x 30] Space_FE_1 <dbl [22,~ <dbl [2~ <dbl [22,176]> 0.990  1.11
##  4    36 [22,176 x 30] Space_FE_1 <dbl [22,~ <dbl [2~ <dbl [22,176]> 0.892  1.02
##  5    37 [22,044 x 30] Space_FE_1 <dbl [22,~ <dbl [2~ <dbl [22,044]> 0.893  1.16
##  6    38 [22,176 x 30] Space_FE_1 <dbl [22,~ <dbl [2~ <dbl [22,176]> 0.905  1.20
##  7    39 [22,044 x 30] Space_FE_1 <dbl [22,~ <dbl [2~ <dbl [22,044]> 0.855  1.14
##  8    33 [22,176 x 30] Time_FE_2  <dbl [22,~ <dbl [2~ <dbl [22,176]> 0.952  1.14
##  9    34 [22,176 x 30] Time_FE_2  <dbl [22,~ <dbl [2~ <dbl [22,176]> 1.02   1.23
## 10    35 [22,176 x 30] Time_FE_2  <dbl [22,~ <dbl [2~ <dbl [22,176]> 0.975  1.13
## # ... with 25 more rows
…
