Recidivism Prediction in Broward County, FL
…
whichThreshold_revenue <- 
  whichThreshold %>% 
    mutate(actualChurn = ifelse(Variable == "True_Positive", (Count * .5),
                         ifelse(Variable == "False_Negative", Count, 0))) %>% 
    group_by(Threshold) %>% 
    summarize(Revenue = sum(Revenue),
              Actual_Churn_Rate = sum(actualChurn) / sum(Count),
              Actual_Churn_Revenue =  sum(actualChurn * 10600),
              Revenue_Next_Period = Revenue - Actual_Churn_Revenue) 

whichThreshold_revenue

## # A tibble: 99 x 5
##    Threshold Revenue Actual_Churn_Rate Actual_Churn_Revenue Revenue_Next_Period
##        <dbl>   <dbl>             <dbl>                <dbl>               <dbl>
##  1      0.01 8047600             0.110              7112600              935000
##  2      0.02 8047600             0.110              7112600              935000
##  3      0.03 8047600             0.110              7112600              935000
##  4      0.04 8055600             0.110              7112600              943000
##  5      0.05 8059600             0.110              7112600              947000
##  6      0.06 8065600             0.110              7112600              953000
##  7      0.07 8009600             0.110              7123200              886400
##  8      0.08 8015600             0.110              7123200              892400
##  9      0.09 7958600             0.110              7139100              819500
## 10      0.10 7924600             0.110              7149700              774900
## # ... with 89 more rows
…
